%YAML 1.1
%TAG !u! tag:unity3d.com,2011:
--- !u!1 &100000
GameObject:
  m_ObjectHideFlags: 0
  m_PrefabParentObject: {fileID: 0}
  m_PrefabInternal: {fileID: 100100000}
  serializedVersion: 4
  m_Component:
  - 4: {fileID: 400000}
  - 114: {fileID: 11400000}
  m_Layer: 0
  m_Name: Game Controller
  m_TagString: Untagged
  m_Icon: {fileID: 0}
  m_NavMeshLayer: 0
  m_StaticEditorFlags: 0
  m_IsActive: 1
--- !u!4 &400000
Transform:
  m_ObjectHideFlags: 1
  m_PrefabParentObject: {fileID: 0}
  m_PrefabInternal: {fileID: 100100000}
  m_GameObject: {fileID: 100000}
  m_LocalRotation: {x: 0, y: 0, z: 0, w: 1}
  m_LocalPosition: {x: 0, y: 50, z: 0}
  m_LocalScale: {x: 1, y: 1, z: 1}
  m_Children: []
  m_Father: {fileID: 0}
  m_RootOrder: 0
--- !u!114 &11400000
MonoBehaviour:
  m_ObjectHideFlags: 1
  m_PrefabParentObject: {fileID: 0}
  m_PrefabInternal: {fileID: 100100000}
  m_GameObject: {fileID: 100000}
  m_Enabled: 1
  m_EditorHideFlags: 0
  m_Script: {fileID: 11500000, guid: 668f41c29d0de72489ebba4e62361a5f, type: 3}
  m_Name: 
  m_EditorClassIdentifier: 
  minQuestionNumber: 1
  maxQuestionNumber: 1000
  timeBetweenGames: 3
  targetFramerate: 60
  book: {fileID: 0}
  howToPlayChapter:
    leftPageTexture: {fileID: 2800000, guid: 157785a4b1830bf4cba9a074baf4a055, type: 3}
    rightPageTexture: {fileID: 2800000, guid: e087c1d6b4e28354d8b3ade67b9b43f1, type: 3}
  countdownChapters:
  - leftPageTexture: {fileID: 2800000, guid: 7f2b4e29f42becf4f9707d739a8d8322, type: 3}
    rightPageTexture: {fileID: 2800000, guid: 279549ca7079e374980dcb7ded07f2b6, type: 3}
  - leftPageTexture: {fileID: 2800000, guid: c295f70b152f55b45b76d536389bd038, type: 3}
    rightPageTexture: {fileID: 2800000, guid: 9a93a0ef4fb4006499e947b99a9ab6a5, type: 3}
  - leftPageTexture: {fileID: 2800000, guid: fe735b66b5546674284dc772fa425ff5, type: 3}
    rightPageTexture: {fileID: 2800000, guid: 1994038465768e742b2a2cdf9e90af03, type: 3}
  correctAnswerChapter:
    leftPageTexture: {fileID: 2800000, guid: 5a9eca6aa9b67234d9e6ceacbd706c0d, type: 3}
    rightPageTexture: {fileID: 2800000, guid: 2b0644866a32d4b4490d014539954902, type: 3}
  gameOverChapter:
    leftPageTexture: {fileID: 2800000, guid: d96fad8aa6e538a4bb08c865779320a5, type: 3}
    rightPageTexture: {fileID: 2800000, guid: a46d252f113ca214c9eb4e8df88036eb, type: 3}
  currentStreak: {fileID: 0}
  question: {fileID: 0}
  dividedByThreePaper: {fileID: 0}
  dividedByFivePaper: {fileID: 0}
  dividedByThreeAndFivePaper: {fileID: 0}
  notDividedByThreeOrFive: {fileID: 0}
  buttonsGlowMaterial: {fileID: 2100000, guid: bf205cdf1096a174fa0bf94b7b644e56, type: 2}
--- !u!1001 &100100000
Prefab:
  m_ObjectHideFlags: 1
  serializedVersion: 2
  m_Modification:
    m_TransformParent: {fileID: 0}
    m_Modifications: []
    m_RemovedComponents: []
  m_ParentPrefab: {fileID: 0}
  m_RootGameObject: {fileID: 100000}
  m_IsPrefabParent: 1
  m_IsExploded: 1
